…
### Prediction

```r
test.data <-
  new.data %>%
  select(-Cancer)

final <-
  tibble(predicted = predict(model,test.data), actual = new.data$Cancer) %>%
  mutate(predicted = predicted>0)

final
```

    ## # A tibble: 858 x 2
    ##    predicted actual
    ##    <lgl>     <fct>
    ##  1 FALSE     FALSE
    ##  2 FALSE     FALSE
    ##  3 FALSE     FALSE
    ##  4 FALSE     FALSE
    ##  5 FALSE     FALSE
    ##  6 FALSE     FALSE
    ##  7 FALSE     TRUE
    ##  8 FALSE     FALSE
    ##  9 FALSE     FALSE
    ## 10 FALSE     FALSE
    ## # … with 848 more rows

```r
final %>%
  filter(predicted == actual)
```

    ## # A tibble: 745 x 2
    ##    predicted actual
    ##    <lgl>     <fct>
    ##  1 FALSE     FALSE
    ##  2 FALSE     FALSE
    ##  3 FALSE     FALSE
    ##  4 FALSE     FALSE
    ##  5 FALSE     FALSE
    ##  6 FALSE     FALSE
    ##  7 FALSE     FALSE
    ##  8 FALSE     FALSE
    ##  9 FALSE     FALSE
    ## 10 FALSE     FALSE
    ## # … with 735 more rows

```r
final %>%
  filter(predicted != actual)
```

    ## # A tibble: 100 x 2
    ##    predicted actual
    ##    <lgl>     <fct>
    ##  1 FALSE     TRUE
    ##  2 FALSE     TRUE
    ##  3 FALSE     TRUE
    ##  4 FALSE     TRUE
    ##  5 FALSE     TRUE
    ##  6 FALSE     TRUE
    ##  7 FALSE     TRUE
    ##  8 FALSE     TRUE
    ##  9 FALSE     TRUE
    ## 10 FALSE     TRUE
    ## # … with 90 more rows
